<svg xmlns="http://www.w3.org/2000/svg" xml:space="preserve" id="圖層_1" width="225" height="45" x="0" y="0" version="1.1" viewBox="0 0 225 45">
  <style>
    .st0{fill-rule:evenodd;clip-rule:evenodd}.st0,.st1{fill:#ef5f23}
  </style>
  <path d="M55.2 0h-.5c-1.2.3-2.2 1.4-2.2 2.8s1 2.5 2.2 2.8c.1 0 .3.1.4.1h.1c1.5 0 2.7-1.3 2.7-2.8C58 1.3 56.7 0 55.2 0zM46.6.4c-1.3.2-2.5.5-3.6.8-1.7.5-3.4 1.2-4.9 1.9-4.5 2.3-8.6 6-11.1 10.5-2.6 4.6-2.5 9.8-3.9 14.8-1.3 5-3.6 9.7-7.1 13.5-1 1.1-2.2 2.2-3.5 3.2 1.2-.1 2.4-.2 3.5-.3 6.3-.7 13.1-2.8 16.7-8.5 4.5-6.9 2-15.3 5.4-22.4 1.1-2.4 2.7-4.8 4.9-7.1 1.1-1.2 2.3-2.3 3.6-3.5.8-.6 1.5-1.3 2.4-1.9.6-.4 1.2-.9 1.9-1.3-.6 0-1.3.1-1.9.1-.8 0-1.6.1-2.4.2z" class="st0"/>
  <path d="M16 19.5c-2.2-2.5-4.8-4.2-6.3-5.1C10.7 3.8 5.9 2 0 1.9.4 8 8 31.1 16.1 38.1c.2-.3.4-.5.6-.8 4.2-5.7 4-12.5-.7-17.8zM62.1 33.1h1.8v-.3h-1.8v-1.6H64v-.3h-2.5v4.3h2.6v-.4h-2z" class="st0"/>
  <path d="M64.2 35.3h-2.8v-4.6h2.8v.6h-2v1.4H64v.6h-1.8v1.4h2v.6zm-2.5-.3H64h-2v-2h1.8H62v-2h2-2.2l-.1 4z" class="st1"/>
  <path d="m68.1 34-2.5-3.1h-.4v4.3h.4v-3.6l2.9 3.7v-4.4h-.4z" class="st0"/>
  <path d="M68.6 35.7 65.8 32v3.3h-.7v-4.6h.6v.1l2.2 2.8v-2.9h.7v5zm-3.2-.7.1-3.9 2.9 3.7V31h-.1v3.4L65.6 31h-.2v4z" class="st1"/>
  <path d="M70.4 33.1h1.9v-.3h-1.9v-1.6h2v-.3h-2.5v4.3h2.6v-.4h-2.1z" class="st0"/>
  <path d="M72.6 35.3h-2.8v-4.6h2.7v.6h-2v1.3h1.9v.6h-1.9v1.4h2.1v.7zm-2.5-.3h2.3-2.1v-2h1.9v-.1h-1.9V31h2-2.2v4z" class="st1"/>
  <path d="m74.9 32.8-.3-.1c-.3-.1-.5-.3-.6-.4-.1-.1-.2-.2-.2-.4s.1-.4.3-.6c.2-.2.4-.3.6-.3s.3.1.4.1c.1.1.2.2.3.4l.2-.2c-.1-.2-.3-.4-.4-.5-.2-.1-.4-.1-.6-.1-.4 0-.7.1-.9.4-.2.2-.4.5-.4.9 0 .2.1.5.2.6.1.2.4.3.7.5l.3.1c.3.1.5.3.5.4.1.1.1.2.1.4 0 .3-.1.5-.2.7s-.3.3-.6.3c-.2 0-.4 0-.5-.1-.2-.1-.3-.3-.4-.4l-.2.2c.1.2.3.4.5.5s.4.2.6.2c.4 0 .7-.1 1-.4.2-.2.4-.6.4-1 0-.3-.1-.5-.2-.6-.1-.3-.3-.4-.6-.6z" class="st0"/>
  <path d="M74.5 35.4c-.3 0-.5-.1-.7-.2-.2-.1-.4-.3-.5-.5l-.1-.1.4-.4.1.2c.1.2.2.3.3.4.1.1.3.1.5.1s.4-.1.5-.2c.1-.1.2-.3.2-.6 0-.2 0-.2-.1-.4-.1-.1-.3-.2-.5-.3l-.3-.1c-.4-.2-.7-.4-.8-.5-.2-.2-.2-.4-.2-.7 0-.4.1-.7.4-1s.6-.4 1-.4c.2 0 .4.1.6.2s.3.3.5.5l.1.1-.4.4-.1-.2c-.1-.1-.2-.3-.3-.3-.1-.1-.2-.1-.3-.1-.2 0-.4.1-.5.2s-.2.3-.2.5 0 .2.1.3.2.2.6.3l.3.1c.4.1.6.3.8.5.1.2.2.4.2.7 0 .4-.1.8-.4 1.1-.5.3-.8.4-1.2.4zm-1-.7c.1.2.2.3.4.3.1.1.2.1.3.1-.1 0-.2-.1-.3-.1-.2-.1-.3-.2-.4-.3zm1.1-3.8c-.3 0-.6.1-.8.3-.2.2-.3.5-.3.8 0 .2.1.4.2.5.1.1.3.3.7.5l.3.1c.3.1.5.3.6.4.1.1.2.3.2.5 0 .3-.1.6-.3.8-.1.1-.2.2-.4.3.2 0 .4-.1.5-.3.2-.2.3-.5.3-.9 0-.2-.1-.4-.2-.5-.1-.2-.3-.3-.7-.4l-.3-.1c-.3-.1-.5-.3-.7-.4-.1-.2-.2-.3-.2-.5 0-.3.1-.5.3-.7.2-.2.5-.3.8-.4.1 0 .1 0 0 0z" class="st1"/>
  <path d="M78.9 33.3c-.1-.2-.4-.3-.7-.5l-.3-.1c-.3-.1-.5-.3-.6-.4-.1-.1-.2-.2-.2-.4s.1-.4.2-.6c.2-.2.4-.3.6-.3.1 0 .3.1.4.1.1.1.2.2.3.4l.2-.2c-.1-.2-.3-.4-.4-.5-.2-.1-.3-.1-.6-.1-.4 0-.7.1-.9.4-.2.2-.4.5-.4.9 0 .2.1.5.2.6.1.2.4.3.8.5l.3.1c.3.1.5.3.6.4.1.1.2.2.2.4 0 .3-.1.5-.2.7-.2.2-.4.3-.6.3s-.4-.1-.5-.2c-.2-.1-.3-.2-.4-.4l-.2.2c.1.2.3.4.5.5s.4.2.7.2c.4 0 .7-.1.9-.4.2-.2.4-.6.4-1l-.3-.6z" class="st0"/>
  <path d="M77.7 35.4c-.3 0-.5-.1-.7-.2-.2-.1-.4-.3-.5-.5v-.1l.4-.4.1.2c.1.2.2.3.3.4.1.1.3.1.5.1s.4-.1.5-.2c.1-.1.2-.3.2-.6 0-.2 0-.2-.1-.3-.1-.1-.2-.2-.5-.3l-.3-.1c-.4-.2-.7-.4-.8-.5-.2-.2-.2-.4-.2-.7 0-.4.1-.7.4-1s.6-.4 1-.4c.2 0 .4.1.6.2s.3.3.5.5l.1.1-.4.4-.1-.2c-.1-.1-.1-.3-.3-.3-.1-.1-.2-.1-.4-.1s-.4.1-.5.2-.2.3-.2.5 0 .2.1.3.3.2.6.3l.3.1c.4.1.6.3.8.5.1.2.2.4.2.7 0 .4-.1.8-.4 1.1-.4.2-.7.3-1.2.3zm-.9-.7c.1.1.2.3.3.3.1.1.3.1.5.1-.2 0-.3-.1-.5-.2 0 0-.2-.1-.3-.2zm1.1-3.8c-.3 0-.6.1-.8.3-.2.2-.3.5-.3.8 0 .2.1.4.2.5.1.1.3.3.7.5l.3.1c.3.1.5.3.6.4.1.1.2.2.2.5s-.1.6-.3.8c-.1.1-.3.2-.5.3.2 0 .4-.1.6-.3s.3-.5.3-.9c0-.2-.1-.4-.2-.5s-.3-.3-.7-.4l-.3-.1c-.3-.1-.5-.3-.7-.4v-.6c0-.3.1-.5.3-.7.1-.2.3-.3.6-.3z" class="st1"/>
  <g>
    <path d="M58.7 31c-.3-.1-.5-.1-.9-.1h-.9v4.3H58.7c.2 0 .4-.1.5-.1.3-.1.5-.3.7-.5s.3-.4.4-.7c.1-.2.1-.5.1-.8 0-.7-.2-1.2-.7-1.6-.3-.3-.6-.4-1-.5zm.7 3.3c-.2.2-.4.3-.7.4-.2.1-.4.1-.7.1h-.6v-3.7h.5c.3 0 .5 0 .8.1s.5.2.7.4c.4.3.5.7.5 1.3 0 .7-.2 1.1-.5 1.4z" class="st0"/>
    <path d="M58.3 35.3h-1.5v-4.6h1.1c.3 0 .6 0 .9.1.4.1.8.3 1.1.5.5.4.8 1 .8 1.7 0 .3-.1.6-.2.8-.1.2-.2.5-.4.7s-.4.4-.7.5c-.2.1-.4.1-.6.1-.3.2-.4.2-.5.2zM57 35H58.7c.2 0 .3-.1.5-.1.3-.1.5-.3.6-.4.2-.2.3-.4.4-.6.1-.2.1-.5.1-.7 0-.7-.2-1.1-.7-1.5-.3-.2-.6-.4-1-.5-.2-.2-.5-.2-.8-.2H57v4zm1 0h-.7v-4h.6c.3 0 .6 0 .8.1.3.1.6.2.8.4.4.4.6.8.6 1.4 0 .6-.2 1-.5 1.4-.2.2-.5.4-.8.5-.3.1-.6.2-.8.2zm-.5-.3h.5c.2 0 .4 0 .6-.1.3-.1.5-.2.7-.4.3-.3.5-.7.5-1.2 0-.6-.1-.9-.5-1.2-.2-.2-.4-.3-.7-.4-.2-.1-.4-.1-.7-.1h-.4v3.4z" class="st1"/>
  </g>
  <g>
    <path d="M54.3 33.1h.3c.3 0 .5-.2.7-.3.2-.2.4-.4.4-.8s-.1-.7-.4-.9c-.2-.1-.4-.2-.7-.3h-1.8v4.3h.5v-4h1c.1 0 .2 0 .3.1.1 0 .1.1.2.1.2.2.3.3.3.6s-.1.5-.3.6c-.1.1-.1.1-.2.1-.1.1-.2.1-.3.1h-.7l.8 1.2.3.5.5.7h.6l-1.1-1.5-.3-.4v-.1h-.1z" class="st0"/>
    <path d="M56 35.3h-1L53.5 33v2.3h-.8v-4.6h2c.3.1.5.2.7.3.3.3.5.6.5 1s-.1.7-.4.9c-.2.2-.5.3-.8.3h-.2l1.5 2.1zm-.8-.3h.3L54 33h-.2l1.4 2zm-2.3 0h.3v-4h1.1c.2 0 .3.1.4.1.1 0 .1.1.2.1.2.2.4.3.4.7 0 .3-.1.5-.3.7l-.2.2c-.1 0-.2.1-.3.1h.2c.2 0 .4-.1.6-.3.2-.2.3-.4.3-.6 0-.3-.1-.6-.4-.8-.1-.1-.3-.2-.6-.2h-1.7v4zm.6-2.3h.9c.1 0 .2 0 .2-.1.1 0 .1-.1.2-.1.2-.1.2-.3.2-.5 0-.3-.1-.4-.2-.5-.1 0-.1-.1-.2-.1s-.2-.1-.3-.1h-.8v1.4z" class="st1"/>
  </g>
  <g>
    <path d="M51.3 33.7c0 .4-.1.7-.3.9s-.3.3-.6.3h-.5c-.1 0-.3 0-.3-.1-.2-.1-.3-.2-.4-.3-.1-.1-.2-.2-.2-.4 0-.1-.1-.3-.1-.6v-2.7h-.5v2.7c0 .4 0 .6.1.8s.1.3.3.4c.1.1.3.3.5.3.1 0 .4.1.6.1h.5c.4 0 .8-.1 1-.4.2-.2.3-.6.3-1v-3h-.4v3z" class="st0"/>
    <path d="M50.4 35.4H50c-.3 0-.5-.1-.6-.1-.2-.1-.4-.2-.6-.4-.1-.1-.2-.3-.3-.5s-.1-.5-.1-.8v-2.9h.8v3.5c0 .1.1.2.2.3l.3.3h.7c.3 0 .4-.1.5-.2.2-.2.2-.4.2-.8v-3h.7v3.1c0 .5-.1.9-.4 1.1-.2.3-.5.4-1 .4zM48.6 31v2.6c0 .3 0 .6.1.7 0 .1.1.3.2.4.1.1.3.2.5.3.1 0 .3.1.6.1h.4c.4 0 .7-.1.9-.3s.3-.5.3-.9V31h-.2v2.7c0 .5-.1.8-.3 1s-.4.3-.7.3h-.5c-.2 0-.3 0-.4-.1-.2-.1-.3-.2-.4-.4-.1-.1-.2-.2-.2-.4s-.1-.3-.1-.6V31h-.2z" class="st1"/>
  </g>
  <g>
    <path d="M46.8 31.4c-.2-.2-.4-.4-.7-.5-.2-.1-.5-.2-.8-.2-.3 0-.5.1-.8.2s-.5.3-.7.5-.4.5-.5.7c-.1.3-.2.6-.2.9 0 .3 0 .6.2.9.1.3.3.5.5.7s.4.4.7.5c.2.1.5.2.8.2.3 0 .5-.1.8-.2.3-.1.5-.3.7-.5s.4-.5.5-.7c.1-.3.2-.6.2-.9 0-.3-.1-.6-.2-.9-.2-.2-.3-.5-.5-.7zm-.4 3.1c-.3.4-.7.4-1 .4-.3 0-.7-.1-1-.5s-.4-.9-.4-1.5.1-1.1.4-1.5c.3-.4.7-.5 1-.5.3 0 .7.2 1 .5.3.4.4.9.4 1.5 0 .8-.2 1.3-.4 1.6z" class="st0"/>
    <path d="M45.3 35.4c-.3 0-.6-.1-.9-.2-.3-.1-.5-.3-.7-.5s-.4-.5-.5-.8-.2-.6-.2-.9c0-.4.1-.7.2-.9.1-.3.3-.5.5-.8.2-.2.5-.4.7-.5.3-.1.5-.2.8-.2s.6.1.9.2c.3.1.5.3.7.5s.4.5.5.8.2.6.2.9c0 .3-.1.6-.2.9-.1.3-.3.6-.5.8s-.4.4-.7.5c-.2.1-.5.2-.8.2zm-.5-4.4c-.1 0-.2.1-.3.1-.2.1-.4.2-.6.4-.2.2-.3.4-.4.7-.1.2-.1.5-.1.8s0 .6.1.8c.1.3.2.5.4.7s.4.3.6.4c.1.1.3.1.4.1-.3-.1-.6-.2-.8-.5-.3-.4-.5-.9-.5-1.6 0-.6.2-1.2.5-1.6.3-.1.5-.2.7-.3zm1.1 0c.2.1.4.3.6.5.3.4.5.9.5 1.6 0 .6-.2 1.2-.5 1.6-.1.1-.2.2-.4.3.2-.1.4-.2.6-.4.2-.2.3-.4.4-.7.1-.3.2-.5.2-.8s-.1-.6-.2-.8c-.1-.3-.3-.5-.4-.7-.2-.2-.4-.3-.6-.4l-.2-.2zm-.6 0v.1c-.2 0-.6.1-.9.4-.3.5-.4.9-.4 1.5s.1 1 .4 1.4c.3.4.7.4.9.4.3 0 .7-.1.9-.4.3-.3.4-.8.4-1.4 0-.6-.1-1.1-.4-1.4-.2-.3-.6-.5-.9-.5V31z" class="st1"/>
  </g>
  <g>
    <path d="M41.6 34.6c0 .2 0 .3-.1.4 0 .1-.1.1-.1.2-.1.1-.3.2-.5.2v.3h.1c.2 0 .4 0 .5-.1.2 0 .3-.1.4-.2.2-.2.3-.5.3-.9v-3.7h-.6v3.8z" class="st0"/>
    <path d="M41 35.8h-.2v-.5h.2c.2 0 .3 0 .4-.1 0-.1.1-.1.1-.1 0-.1.1-.2.1-.4v-3.9h.8v3.8c0 .4-.1.8-.3 1-.1.1-.2.2-.4.2H41zm.8-4.8v3.6c0 .2 0 .4-.1.5 0 .1-.1.1-.1.2-.1.1-.2.2-.4.2h.3c.1 0 .3-.1.3-.2.1-.1.2-.4.2-.8V31h-.2z" class="st1"/>
  </g>
  <g>
    <path d="M70.5 19.2h-4.6c-1.2.2-2.1 1-2.1 1.9V25c0 .9.9 1.7 2.1 1.9h4.6c1.5 0 2.7-.9 2.7-2v-3.8c0-1-1.2-1.9-2.7-1.9zm-.1 6.5c0 .5-.5.8-1.1.8H67.6c-.6 0-1.1-.3-1.1-.8v-5.2c0-.5.5-.8 1.1-.8H69.3c.6 0 1.1.3 1.1.8v5.2zM61.7 20c0-.2.1-.4.2-.5.1-.1.2-.1.5-.2h.2v-.2h-4.7v.2h.3c.2 0 .3.1.4.2.1.1.1.2.2.5v6c0 .2-.1.4-.2.5-.1.1-.2.1-.4.2h-.3v.2h4.7v-.2c-.3 0-.5 0-.7-.2-.1-.1-.2-.2-.2-.5v-6z" class="st0"/>
    <path d="M55.8 22.8c.7.1.8-1.2.7-1.7 0-.8-.2-1.5-1-1.8-.7-.2-1.5-.2-2.2-.2h-6.7v.2c1.3 0 1.3.7 1.3.7v5.9c0 .9-1.3.8-1.3.8v.2h7.9c1 0 1.8-.4 1.9-1.5.3-.8.4-2.4-.6-2.6zm-2.9 3.1h-1.8v-2.6s1.8-.1 2.3.1.8.3.8 1.3-.5 1.2-1.3 1.2zm0-3.3h-1.8V20s1.8-.1 2.3.1.8.3.8 1.3c0 .9-.5 1.1-1.3 1.2zM62.9 15c0-.7-.5-1.2-1.2-1.2-.2 0-.3 0-.4.1 0-.6-.5-1.2-1.2-1.2-.6 0-1.1.5-1.2 1.2-.1-.1-.3-.1-.4-.1-.6 0-1.2.6-1.2 1.2s.4 1 .9 1.2c-.1.2-.2.4-.2.6 0 .7.5 1.2 1.2 1.2.4 0 .7-.2.9-.5.2.3.5.5.9.5.6 0 1.2-.6 1.2-1.2 0-.2-.1-.5-.2-.6.6-.2.9-.6.9-1.2z" class="st1"/>
  </g>
  <path d="m169 3.2 2 .9c.4.1.6.2.6.5 0 .2-.1.3-.4.4-.4.7-.7 1.3-1 1.8h5.8l.9-3.4 2.1.7c.3.1.4.2.4.4s-.1.4-.4.5l-.6 1.8h8.9v2.7h-9.2v2.3h8.3v2.5h-8.3v2.2h8.3V19h-8.3v2h9.6v2.8h-9.6v2.1h11.4v2.7H180c1.6 1.1 3 1.9 4.2 2.4 1.3.6 3.2 1.2 5.7 1.7l-2.2 2.9c-2.2-.8-4.2-1.6-5.9-2.7-1.3-.8-2.5-1.6-3.7-2.5v6.1h-2.8v-6c-1.5 1.2-3 2.1-4.4 2.9-1.7.8-3.8 1.6-6.2 2.2l-2.3-2.7c2.9-.6 5.5-1.4 7.6-2.3 1.2-.4 2.4-1.1 3.8-1.9h-11.1V26h12.6v-2.1h-9.2V12.6c-.8.9-1.7 1.8-2.6 2.7l-2.1-2c2-1.8 3.6-3.4 4.6-4.8 1.1-1.5 2.1-3.2 3-5.3zm6.4 8.6V9.5h-6.5v2.3h6.5zm0 4.7v-2.2h-6.5v2.2h6.5zm0 4.5v-2h-6.5v2h6.5zM199.3 4.6H225v31.6h-2.6v-1H202v1h-2.6l-.1-31.6zm2.7 28h10.9l-.9-2.5h1.7c.6 0 .9-.3 1-.9v-1.1h-5.8c.7.6 1.5 1.4 2.2 2.2l-1.5 1.7c-.9-1.2-1.9-2.1-2.8-2.9l.9-1h-4.5v-2.2h11.6V24c-2.7.3-6 .6-9.8.9-.2.3-.3.5-.5.5-.1 0-.2-.1-.3-.4l-.5-2.4c2.5-.1 4.9-.2 7.2-.4v-1.5h-5.7v-8.5h5.7v-1h-7.6V8.9h7.6V7.6l2.3.2c.4 0 .6.1.6.4 0 .2-.2.4-.5.7h7.7v2.2h-7.7v1h5.8v8.2c.9 1.1 1.7 2.3 2.5 3.7l-1.8 1.4c-.3-.7-.7-1.4-1.1-1.9-.5.1-1.1.1-1.7.2v2.2h4.3v2.2H217v1.6c0 1.1-.3 1.9-.8 2.4-.2.2-.5.4-.9.5h7V7.2H202v25.4zm5.7-17.1h3.2v-1.4h-3.2v1.4zm3.2 3.1v-1.4h-3.2v1.4h3.2zm2.4-4.5v1.4h3.2v-1.4h-3.2zm3.3 4.5v-1.4h-3.2v1.4h3.2zm.9 3c-.3-.4-.5-.7-.8-1h-3.4v1.3c1.5-.1 2.8-.2 4.2-.3zM95 3.3l2.6 1.3c.3.2.4.3.4.5 0 .4-.3.6-.8.8-.9 2.1-1.8 4.2-2.6 5.8v25.2h-2.9V17.1c-.8 1.2-1.6 2.5-2.5 3.9L87 18.7c1.7-2.3 3.2-4.7 4.4-7.1 1.1-2.1 2.4-5 3.6-8.3zm1.8 7.1h5.8c.3-1.8.5-4.3.6-6.6l2.7.3c.5 0 .7.2.7.4 0 .1-.2.4-.6.9-.2 1.6-.4 3.6-.6 4.9h11.2v2.8h-11.7c-.4 1.8-.8 3.3-1.3 4.5-.2.5-.4 1-.7 1.4h12.7v2.8h-7v10.7h8.8v3h-21v-3h9.4V21.9h-4.5c-1 1.5-2.2 3.1-3.6 4.6l-2.4-1.9c3-2.9 5-5.8 6.1-8.7.3-.8.6-1.7.8-2.7H97v-2.8h-.2zM125.4 4.8h9.7l.3-.6c.1-.2.3-.3.4-.3.2 0 .5.2.7.5l1.3 1.5c.2.2.2.4.2.5 0 .3-.3.5-1 .8-1.5 2.7-2.9 4.9-4.2 6.4h11.1l-.5-.5c-1.8-2-3.3-4.9-4.4-8.4l2.5-.6c.4 1.1.8 2.2 1.3 3.1 1.3-1 2.4-2.1 3.4-3.1l1.9 1.9c.1.1.2.3.2.4 0 .2-.3.3-.8.3-1.1.8-2.3 1.6-3.6 2.5.3.5.7 1.1 1 1.5.2.3.4.5.6.7 1.7-1.1 3.2-2.1 4.4-3.2l2 2c.1.2.2.3.2.5s-.3.3-.9.3c-1.2.7-2.4 1.5-3.7 2.2 1.5 1.1 3.3 2.2 5.5 3.1l-1.9 2.7c-2.6-1.4-4.7-2.9-6.4-4.4v1.7h-13.1v-1.6c-.2.2-.4.3-.5.4-2 1.6-4.1 3-6.5 4l-2-2.1c2.1-.7 3.9-2.1 5.6-3.3-1-1.1-2-2-3-2.7l1.8-1.7c1.1.8 2.2 1.7 3.3 2.8l.4-.4c.9-.9 1.9-2.4 3-4.2h-8.3V4.8zm3.5 13.8h18.2v11.5h-2.6l-1 3.5h8.2v2.7H124v-2.7h8.4l-1.2-3.5h-2.3V18.6zm15.4 8.8v-6.1h-12.6v6.1h12.6zm-9 6.2h5.3l1-3.4H134l1.3 3.4z" class="st1"/>
</svg>
